module gitlab.com/g4z/fasttrack-quiz

go 1.18

require (
	github.com/google/uuid v1.3.0
	github.com/spf13/cobra v1.4.0
)

require (
	github.com/inconshreveable/mousetrap v1.0.0 // indirect
	github.com/spf13/pflag v1.0.5 // indirect
)
